id;reason;refund_price;created_at
1;Vermont Florida Associate;98925;2023-01-31T05:17:44
2;Quality Rustic Enterprise-wide;21012;2023-01-30T20:45:25
3;tertiary Accounts JSON;79100;2023-01-30T22:28:16
4;technologies Dirham;36533;2023-01-30T15:49:42
5;Club invoice Associate;88845;2023-01-30T13:14:01
6;Ohio Coordinator;25104;2023-01-31T04:19:42
7;application Ecuador;19318;2023-01-30T18:45:51
8;relationships override;36270;2023-01-30T13:46:50
9;envisioneer;84783;2023-01-30T11:11:03
10;transmit Infrastructure;75840;2023-01-31T02:36:53
